simulation/qsim/Laboratorio2.msim.vcd
$comment
	File created using the following command:
		vcd file Laboratorio2.msim.vcd -direction
$end
$date
	Fri Nov 11 13:56:51 2022
$end
$version
	ModelSim Version 10.1d
$end
$timescale
	1ps
$end
$scope module ParteA_vlg_vec_tst $end
$var reg 1 ! sw1 $end
$var reg 1 " sw2 $end
$var wire 1 # LED $end
$var wire 1 $ sampler $end
$scope module i1 $end
$var wire 1 % gnd $end
$var wire 1 & vcc $end
$var wire 1 ' unknown $end
$var tri1 1 ( devclrn $end
$var tri1 1 ) devpor $end
$var tri1 1 * devoe $end
$var wire 1 + LED~output_o $end
$var wire 1 , sw2~input_o $end
$var wire 1 - sw1~input_o $end
$var wire 1 . LED~0_combout $end
$upscope $end
$upscope $end
$enddefinitions $end
#0
$dumpvars
0!
0"
x#
x$
0%
1&
x'
1(
1)
1*
x+
0,
0-
x.
$end
#3486
0.
#6061
1+
1#
#50000
1"
0$
#50769
1,
#53996
1.
#56588
0+
0#
#100000
0"
1$
#100874
0,
#104360
0.
#106935
1+
1#
#150000
1"
0$
#150769
1,
#153996
1.
#156588
0+
0#
#200000
0"
1$
#200874
0,
#204360
0.
#206935
1+
1#
#250000
1"
0$
#250769
1,
#253996
1.
#256588
0+
0#
#300000
0"
1$
#300874
0,
#304360
0.
#306935
1+
1#
#350000
1"
0$
#350769
1,
#353996
1.
#356588
0+
0#
#400000
0"
1$
#400874
0,
#404360
0.
#406935
1+
1#
#450000
1"
0$
#450769
1,
#453996
1.
#456588
0+
0#
#500000
0"
1$
#500874
0,
#504360
0.
#506935
1+
1#
#550000
1"
0$
#550769
1,
#553996
1.
#556588
0+
0#
#600000
0"
1$
#600874
0,
#604360
0.
#606935
1+
1#
#650000
1"
0$
#650769
1,
#653996
1.
#656588
0+
0#
#700000
0"
1$
#700874
0,
#704360
0.
#706935
1+
1#
#750000
1"
0$
#750769
1,
#753996
1.
#756588
0+
0#
#800000
0"
1$
#800874
0,
#804360
0.
#806935
1+
1#
#850000
1"
0$
#850769
1,
#853996
1.
#856588
0+
0#
#900000
0"
1$
#900874
0,
#904360
0.
#906935
1+
1#
#950000
1"
0$
#950769
1,
#953996
1.
#956588
0+
0#
